--- 1 --------------
Set -rec (instead of bulk semantics)
C200
maximum id in DB is 200
Rewriting took 0.000023 CPU seconds
--- 2 --------------
Set -rec (instead of bulk semantics)
C200
maximum id in DB is 200
Rewriting took 0.000027 CPU seconds
--- 3 --------------
Set -rec (instead of bulk semantics)
C200
maximum id in DB is 200
Rewriting took 0.000024 CPU seconds
--- 4 --------------
Set -rec (instead of bulk semantics)
C200
maximum id in DB is 200
Rewriting took 0.000023 CPU seconds
--- 5 --------------
Set -rec (instead of bulk semantics)
C200
maximum id in DB is 200
Rewriting took 0.000024 CPU seconds
