--- 1 --------------
Set -ht
Class2RDB
maximum id in DB is 69
Rewriting took 0.000727 CPU seconds
Evaluation took 40.049002 CPU seconds
--- 2 --------------
Set -ht
Class2RDB
maximum id in DB is 69
Rewriting took 0.000743 CPU seconds
Evaluation took 39.809630 CPU seconds
--- 3 --------------
Set -ht
Class2RDB
maximum id in DB is 69
Rewriting took 0.000982 CPU seconds
Evaluation took 39.729952 CPU seconds
--- 4 --------------
Set -ht
Class2RDB
maximum id in DB is 69
Rewriting took 0.000869 CPU seconds
Evaluation took 39.688117 CPU seconds
--- 5 --------------
Set -ht
Class2RDB
maximum id in DB is 69
Rewriting took 0.000714 CPU seconds
Evaluation took 40.886050 CPU seconds
