--- 1 --------------
Set -rec (instead of bulk semantics)
Set -ht
S30k
maximum id in DB is 29999
Rewriting took 0.000027 CPU seconds
Evaluation took 2.176639 CPU seconds
--- 2 --------------
Set -rec (instead of bulk semantics)
Set -ht
S30k
maximum id in DB is 29999
Rewriting took 0.000023 CPU seconds
Evaluation took 1.695578 CPU seconds
--- 3 --------------
Set -rec (instead of bulk semantics)
Set -ht
S30k
maximum id in DB is 29999
Rewriting took 0.000024 CPU seconds
Evaluation took 1.704330 CPU seconds
--- 4 --------------
Set -rec (instead of bulk semantics)
Set -ht
S30k
maximum id in DB is 29999
Rewriting took 0.000024 CPU seconds
Evaluation took 1.697256 CPU seconds
--- 5 --------------
Set -rec (instead of bulk semantics)
Set -ht
S30k
maximum id in DB is 29999
Rewriting took 0.000022 CPU seconds
Evaluation took 1.605006 CPU seconds
