Read graph: (42,45) from ../uncal/db/customers_.dot
Read graph: (70,73) from ../uncal/db/class6.dot
Read graph: (58,58) from ../uncal/db/PIM_db1.dot
Read graph: (30000,29999) from ../uncal/db/aseq30000.dot
Read graph: (40000,80000) from ../uncal/db/lat200.dot
Read graph: (201,40200) from ../uncal/db/p200.dot
----------------------------------------------------
C2O
Loading input
()
# Elapsed: 0.67 ms
Executing transformations
()
# Total:   692.973 ms
# Avarage: 1.385946 ms
----------------------------------------------------
Class2RDB
Loading input
()
# Elapsed: 0.927 ms
Executing transformations
()
# Total:   873.626 ms
# Avarage: 1.747252 ms
----------------------------------------------------
PIM2PSM
Loading input
()
# Elapsed: 0.803 ms
Executing transformations
()
# Total:   954.369 ms
# Avarage: 1.908738 ms
----------------------------------------------------
S30k
Loading input
()
# Elapsed: 313.821 ms
Executing transformations
()
# Total:   2251.788 ms
# Avarage: 450.3576 ms
----------------------------------------------------
M200
Loading input
()
# Elapsed: 593.71 ms
Executing transformations
()
# Total:   7897.518 ms
# Avarage: 1579.5036 ms
----------------------------------------------------
c200
Loading input
()
# Elapsed: 497.663 ms
Executing transformations
()
# Total:   4982.463 ms
# Avarage: 996.4925999999999 ms
