--- 1 --------------
Set -ht
C200
maximum id in DB is 200
Rewriting took 0.000026 CPU seconds
Evaluation took 0.768840 CPU seconds
--- 2 --------------
Set -ht
C200
maximum id in DB is 200
Rewriting took 0.000026 CPU seconds
Evaluation took 0.833548 CPU seconds
--- 3 --------------
Set -ht
C200
maximum id in DB is 200
Rewriting took 0.000035 CPU seconds
Evaluation took 0.801906 CPU seconds
--- 4 --------------
Set -ht
C200
maximum id in DB is 200
Rewriting took 0.000024 CPU seconds
Evaluation took 0.840997 CPU seconds
--- 5 --------------
Set -ht
C200
maximum id in DB is 200
Rewriting took 0.000025 CPU seconds
Evaluation took 0.778084 CPU seconds
