--- 1 --------------
Set -ht
C2O_Sel
maximum id in DB is 41
Fusion_rule (2) applied(may degenerate to rule (1))
Rewriting took 0.000180 CPU seconds
Evaluation took 0.091973 CPU seconds
--- 2 --------------
Set -ht
C2O_Sel
maximum id in DB is 41
Fusion_rule (2) applied(may degenerate to rule (1))
Rewriting took 0.000142 CPU seconds
Evaluation took 0.104744 CPU seconds
--- 3 --------------
Set -ht
C2O_Sel
maximum id in DB is 41
Fusion_rule (2) applied(may degenerate to rule (1))
Rewriting took 0.000140 CPU seconds
Evaluation took 0.093095 CPU seconds
--- 4 --------------
Set -ht
C2O_Sel
maximum id in DB is 41
Fusion_rule (2) applied(may degenerate to rule (1))
Rewriting took 0.000173 CPU seconds
Evaluation took 0.099312 CPU seconds
--- 5 --------------
Set -ht
C2O_Sel
maximum id in DB is 41
Fusion_rule (2) applied(may degenerate to rule (1))
Rewriting took 0.000167 CPU seconds
Evaluation took 0.095441 CPU seconds
