--- 1 --------------
Class2RDB
maximum id in DB is 69
Rewriting took 0.000893 CPU seconds
Evaluation took 40.177270 CPU seconds
--- 2 --------------
Class2RDB
maximum id in DB is 69
Rewriting took 0.000829 CPU seconds
Evaluation took 40.537245 CPU seconds
--- 3 --------------
Class2RDB
maximum id in DB is 69
Rewriting took 0.001301 CPU seconds
Evaluation took 47.533483 CPU seconds
--- 4 --------------
Class2RDB
maximum id in DB is 69
Rewriting took 0.001482 CPU seconds
Evaluation took 39.657005 CPU seconds
--- 5 --------------
Class2RDB
maximum id in DB is 69
Rewriting took 0.000762 CPU seconds
Evaluation took 38.866936 CPU seconds
