--- 1 --------------
Set -ht
Class2RDB
maximum id in DB is 69
Rewriting took 0.000774 CPU seconds
Evaluation took 42.272734 CPU seconds
--- 2 --------------
Set -ht
Class2RDB
maximum id in DB is 69
Rewriting took 0.000797 CPU seconds
Evaluation took 41.927766 CPU seconds
--- 3 --------------
Set -ht
Class2RDB
maximum id in DB is 69
Rewriting took 0.000725 CPU seconds
Evaluation took 48.861066 CPU seconds
--- 4 --------------
Set -ht
Class2RDB
maximum id in DB is 69
Rewriting took 0.000710 CPU seconds
Evaluation took 40.043041 CPU seconds
--- 5 --------------
Set -ht
Class2RDB
maximum id in DB is 69
Rewriting took 0.000907 CPU seconds
Evaluation took 39.876829 CPU seconds
