--- 1 --------------
Set -rec (instead of bulk semantics)
S30k
maximum id in DB is 29999
Rewriting took 0.000025 CPU seconds
--- 2 --------------
Set -rec (instead of bulk semantics)
S30k
maximum id in DB is 29999
Rewriting took 0.000032 CPU seconds
--- 3 --------------
Set -rec (instead of bulk semantics)
S30k
maximum id in DB is 29999
Rewriting took 0.000025 CPU seconds
--- 4 --------------
Set -rec (instead of bulk semantics)
S30k
maximum id in DB is 29999
Rewriting took 0.000037 CPU seconds
--- 5 --------------
Set -rec (instead of bulk semantics)
S30k
maximum id in DB is 29999
Rewriting took 0.000025 CPU seconds
