--- 1 --------------
Set -ht
S30k
maximum id in DB is 29999
Rewriting took 0.000024 CPU seconds
Evaluation took 1.219479 CPU seconds
--- 2 --------------
Set -ht
S30k
maximum id in DB is 29999
Rewriting took 0.000024 CPU seconds
Evaluation took 1.411416 CPU seconds
--- 3 --------------
Set -ht
S30k
maximum id in DB is 29999
Rewriting took 0.000022 CPU seconds
Evaluation took 1.394333 CPU seconds
--- 4 --------------
Set -ht
S30k
maximum id in DB is 29999
Rewriting took 0.000023 CPU seconds
Evaluation took 1.315512 CPU seconds
--- 5 --------------
Set -ht
S30k
maximum id in DB is 29999
Rewriting took 0.000030 CPU seconds
Evaluation took 1.271626 CPU seconds
