--- 1 --------------
m200
maximum id in DB is 39999
Rewriting took 0.000029 CPU seconds
Evaluation took 2.113833 CPU seconds
--- 2 --------------
m200
maximum id in DB is 39999
Rewriting took 0.000026 CPU seconds
Evaluation took 2.138923 CPU seconds
--- 3 --------------
m200
maximum id in DB is 39999
Rewriting took 0.000022 CPU seconds
Evaluation took 2.158138 CPU seconds
--- 4 --------------
m200
maximum id in DB is 39999
Rewriting took 0.000024 CPU seconds
Evaluation took 2.202657 CPU seconds
--- 5 --------------
m200
maximum id in DB is 39999
Rewriting took 0.000023 CPU seconds
Evaluation took 2.143587 CPU seconds
