--- 1 --------------
S30k
maximum id in DB is 29999
Rewriting took 0.000027 CPU seconds
Evaluation took 1.292022 CPU seconds
--- 2 --------------
S30k
maximum id in DB is 29999
Rewriting took 0.000024 CPU seconds
Evaluation took 1.283451 CPU seconds
--- 3 --------------
S30k
maximum id in DB is 29999
Rewriting took 0.000027 CPU seconds
Evaluation took 1.293658 CPU seconds
--- 4 --------------
S30k
maximum id in DB is 29999
Rewriting took 0.000024 CPU seconds
Evaluation took 1.256238 CPU seconds
--- 5 --------------
S30k
maximum id in DB is 29999
Rewriting took 0.000026 CPU seconds
Evaluation took 1.305888 CPU seconds
